vcd/multiplier_tb_gtk.vcd
$date
	Tue May 26 11:34:09 2026
$end
$version
	Icarus Verilog
$end
$timescale
	1s
$end
$scope module tb_seq_multiplier $end
$var wire 16 ! product [15:0] $end
$var wire 1 " done $end
$var reg 8 # a [7:0] $end
$var reg 8 $ b [7:0] $end
$var reg 1 % clk $end
$var reg 1 & rst $end
$var reg 1 ' start $end
$scope module dut $end
$var wire 8 ( a [7:0] $end
$var wire 8 ) b [7:0] $end
$var wire 1 % clk $end
$var wire 1 & rst $end
$var wire 1 ' start $end
$var wire 9 * sum [8:0] $end
$var wire 1 + shift $end
$var wire 16 , product [15:0] $end
$var wire 1 - load $end
$var wire 1 . last $end
$var wire 1 " done $end
$var wire 1 / do_add $end
$var wire 1 0 count_en $end
$var wire 4 1 count [3:0] $end
$var wire 1 2 clear $end
$var wire 1 3 add_en $end
$var wire 8 4 Q [7:0] $end
$var wire 8 5 M [7:0] $end
$var wire 9 6 A [8:0] $end
$scope module U1 $end
$var wire 8 7 a_in [7:0] $end
$var wire 8 8 b_in [7:0] $end
$var wire 1 % clk $end
$var wire 1 & rst $end
$var wire 9 9 sum [8:0] $end
$var wire 1 + shift $end
$var wire 1 - load $end
$var wire 1 3 add_en $end
$var reg 9 : A [8:0] $end
$var reg 8 ; M [7:0] $end
$var reg 8 < Q [7:0] $end
$upscope $end
$scope module U2 $end
$var wire 1 % clk $end
$var wire 1 & rst $end
$var wire 1 . last $end
$var wire 1 0 count_en $end
$var wire 1 2 clear $end
$var reg 4 = count [3:0] $end
$upscope $end
$scope module U3 $end
$var wire 9 > A [8:0] $end
$var wire 8 ? M [7:0] $end
$var wire 1 @ Q_lsb $end
$var wire 1 / do_add $end
$var wire 9 A sum [8:0] $end
$upscope $end
$scope module U4 $end
$var wire 1 % clk $end
$var wire 1 / do_add $end
$var wire 1 . last $end
$var wire 1 & rst $end
$var wire 1 ' start $end
$var parameter 3 B ADD $end
$var parameter 3 C CHECK $end
$var parameter 3 D DONE $end
$var parameter 3 E IDLE $end
$var parameter 3 F LOAD $end
$var parameter 3 G SHIFT $end
$var reg 1 3 add_en $end
$var reg 1 2 clear $end
$var reg 1 0 count_en $end
$var reg 1 " done $end
$var reg 1 - load $end
$var reg 3 H next_state [2:0] $end
$var reg 1 + shift $end
$var reg 3 I state [2:0] $end
$upscope $end
$upscope $end
$scope task run $end
$var reg 8 J x [7:0] $end
$var reg 8 K y [7:0] $end
$upscope $end
$upscope $end
$enddefinitions $end
$comment Show the parameter values. $end
$dumpall
b100 G
b1 F
b0 E
b101 D
b10 C
b11 B
$end
#0
$dumpvars
bx K
bx J
b0 I
b0 H
bx A
x@
bx ?
bx >
bx =
bx <
bx ;
bx :
bx 9
bx 8
bx 7
bx 6
bx 5
bx 4
03
02
bx 1
00
x/
x.
0-
bx ,
0+
bx *
bx )
bx (
0'
1&
0%
bx $
bx #
0"
bx !
$end
#5
0/
0@
b0 !
b0 ,
b0 4
b0 <
b0 *
b0 9
b0 A
b0 5
b0 ;
b0 ?
b0 6
b0 :
b0 >
0.
b0 1
b0 =
1%
#10
0%
#12
b1011 K
b1101 J
0&
#15
1%
#20
b1 H
1'
b1011 $
b1011 )
b1011 8
b1101 #
b1101 (
b1101 7
0%
#25
12
1-
b10 H
b1 I
1%
#30
0'
0%
#35
1/
1@
02
0-
b11 H
b1011 !
b1011 ,
b1011 4
b1011 <
b1101 *
b1101 9
b1101 A
b1101 5
b1101 ;
b1101 ?
b10 I
1%
#40
0%
#45
13
b100 H
b11 I
1%
#50
0%
#55
b110100001011 !
b110100001011 ,
10
1+
03
b10 H
b11010 *
b11010 9
b11010 A
b1101 6
b1101 :
b1101 >
b100 I
1%
#60
0%
#65
00
0+
b11 H
b10011 *
b10011 9
b10011 A
b110 6
b110 :
b110 >
b11010000101 !
b11010000101 ,
b10000101 4
b10000101 <
b1 1
b1 =
b10 I
1%
#70
0%
#75
13
b100 H
b11 I
1%
#80
0%
#85
b1001110000101 !
b1001110000101 ,
10
1+
03
b10 H
b100000 *
b100000 9
b100000 A
b10011 6
b10011 :
b10011 >
b100 I
1%
#90
0%
#95
0/
0@
00
0+
b100 H
b10 1
b10 =
b10110 *
b10110 9
b10110 A
b1001 6
b1001 :
b1001 >
b100111000010 !
b100111000010 ,
b11000010 4
b11000010 <
b10 I
1%
#100
0%
#105
10
1+
b10 H
b100 I
1%
#110
0%
#115
1/
1@
00
0+
b11 H
b11 1
b11 =
b10001 *
b10001 9
b10001 A
b100 6
b100 :
b100 >
b10011100001 !
b10011100001 ,
b11100001 4
b11100001 <
b10 I
1%
#120
0%
#125
13
b100 H
b11 I
1%
#130
0%
#135
b1000111100001 !
b1000111100001 ,
10
1+
03
b10 H
b11110 *
b11110 9
b11110 A
b10001 6
b10001 :
b10001 >
b100 I
1%
#140
0%
#145
0/
0@
00
0+
b100 H
b10101 *
b10101 9
b10101 A
b1000 6
b1000 :
b1000 >
b100011110000 !
b100011110000 ,
b11110000 4
b11110000 <
b100 1
b100 =
b10 I
1%
#150
0%
#155
10
1+
b10 H
b100 I
1%
#160
0%
#165
00
0+
b100 H
b10001 *
b10001 9
b10001 A
b100 6
b100 :
b100 >
b10001111000 !
b10001111000 ,
b1111000 4
b1111000 <
b101 1
b101 =
b10 I
1%
#170
0%
#175
10
1+
b10 H
b100 I
1%
#180
0%
#185
00
0+
b100 H
b1111 *
b1111 9
b1111 A
b10 6
b10 :
b10 >
b1000111100 !
b1000111100 ,
b111100 4
b111100 <
b110 1
b110 =
b10 I
1%
#190
0%
#195
10
1+
b10 H
b100 I
1%
#200
0%
#205
00
0+
b100 H
b1110 *
b1110 9
b1110 A
b1 6
b1 :
b1 >
b100011110 !
b100011110 ,
b11110 4
b11110 <
1.
b111 1
b111 =
b10 I
1%
#210
0%
#215
10
1+
b101 H
b100 I
1%
#220
0%
#225
1/
1@
1"
00
0+
b0 H
b1101 *
b1101 9
b1101 A
b0 6
b0 :
b0 >
b10001111 !
b10001111 ,
b10001111 4
b10001111 <
0.
b1000 1
b1000 =
b101 I
1%
#230
b0 K
b0 J
0%
#235
0"
b0 I
1%
#240
b1 H
1'
b0 $
b0 )
b0 8
b0 #
b0 (
b0 7
0%
#245
12
1-
b10 H
b1 I
1%
#250
0'
0%
#255
0/
0@
02
0-
b100 H
b0 1
b0 =
b0 !
b0 ,
b0 4
b0 <
b0 *
b0 9
b0 A
b0 5
b0 ;
b0 ?
b10 I
1%
#260
0%
#265
10
1+
b10 H
b100 I
1%
#270
0%
#275
00
0+
b100 H
b1 1
b1 =
b10 I
1%
#280
0%
#285
10
1+
b10 H
b100 I
1%
#290
0%
#295
00
0+
b100 H
b10 1
b10 =
b10 I
1%
#300
0%
#305
10
1+
b10 H
b100 I
1%
#310
0%
#315
00
0+
b100 H
b11 1
b11 =
b10 I
1%
#320
0%
#325
10
1+
b10 H
b100 I
1%
#330
0%
#335
00
0+
b100 H
b100 1
b100 =
b10 I
1%
#340
0%
#345
10
1+
b10 H
b100 I
1%
#350
0%
#355
00
0+
b100 H
b101 1
b101 =
b10 I
1%
#360
0%
#365
10
1+
b10 H
b100 I
1%
#370
0%
#375
00
0+
b100 H
b110 1
b110 =
b10 I
1%
#380
0%
#385
10
1+
b10 H
b100 I
1%
#390
0%
#395
00
0+
b100 H
1.
b111 1
b111 =
b10 I
1%
#400
0%
#405
10
1+
b101 H
b100 I
1%
#410
0%
#415
1"
00
0+
b0 H
0.
b1000 1
b1000 =
b101 I
1%
#420
b11111111 K
b11111111 J
0%
#425
0"
b0 I
1%
#430
b1 H
1'
b11111111 $
b11111111 )
b11111111 8
b11111111 #
b11111111 (
b11111111 7
0%
#435
12
1-
b10 H
b1 I
1%
#440
0'
0%
#445
1/
1@
02
0-
b11 H
b11111111 !
b11111111 ,
b11111111 4
b11111111 <
b11111111 *
b11111111 9
b11111111 A
b11111111 5
b11111111 ;
b11111111 ?
b0 1
b0 =
b10 I
1%
#450
0%
#455
13
b100 H
b11 I
1%
#460
0%
#465
b1111111111111111 !
b1111111111111111 ,
10
1+
03
b10 H
b111111110 *
b111111110 9
b111111110 A
b11111111 6
b11111111 :
b11111111 >
b100 I
1%
#470
0%
#475
b111111111111111 !
b111111111111111 ,
00
0+
b11 H
b1 1
b1 =
b101111110 *
b101111110 9
b101111110 A
b1111111 6
b1111111 :
b1111111 >
b10 I
1%
#480
0%
#485
13
b100 H
b11 I
1%
#490
0%
#495
b111111011111111 !
b111111011111111 ,
10
1+
03
b10 H
b1111101 *
b1111101 9
b1111101 A
b101111110 6
b101111110 :
b101111110 >
b100 I
1%
#500
0%
#505
00
0+
b11 H
b110111110 *
b110111110 9
b110111110 A
b10111111 6
b10111111 :
b10111111 >
b1011111101111111 !
b1011111101111111 ,
b1111111 4
b1111111 <
b10 1
b10 =
b10 I
1%
#510
0%
#515
13
b100 H
b11 I
1%
#520
0%
#525
b1011111001111111 !
b1011111001111111 ,
10
1+
03
b10 H
b10111101 *
b10111101 9
b10111101 A
b110111110 6
b110111110 :
b110111110 >
b100 I
1%
#530
0%
#535
00
0+
b11 H
b11 1
b11 =
b111011110 *
b111011110 9
b111011110 A
b11011111 6
b11011111 :
b11011111 >
b1101111100111111 !
b1101111100111111 ,
b111111 4
b111111 <
b10 I
1%
#540
0%
#545
13
b100 H
b11 I
1%
#550
0%
#555
b1101111000111111 !
b1101111000111111 ,
10
1+
03
b10 H
b11011101 *
b11011101 9
b11011101 A
b111011110 6
b111011110 :
b111011110 >
b100 I
1%
#560
0%
#565
00
0+
b11 H
b111101110 *
b111101110 9
b111101110 A
b11101111 6
b11101111 :
b11101111 >
b1110111100011111 !
b1110111100011111 ,
b11111 4
b11111 <
b100 1
b100 =
b10 I
1%
#570
0%
#575
13
b100 H
b11 I
1%
#580
0%
#585
b1110111000011111 !
b1110111000011111 ,
10
1+
03
b10 H
b11101101 *
b11101101 9
b11101101 A
b111101110 6
b111101110 :
b111101110 >
b100 I
1%
#590
0%
#595
00
0+
b11 H
b101 1
b101 =
b111110110 *
b111110110 9
b111110110 A
b11110111 6
b11110111 :
b11110111 >
b1111011100001111 !
b1111011100001111 ,
b1111 4
b1111 <
b10 I
1%
#600
0%
#605
13
b100 H
b11 I
1%
#610
0%
#615
b1111011000001111 !
b1111011000001111 ,
10
1+
03
b10 H
b11110101 *
b11110101 9
b11110101 A
b111110110 6
b111110110 :
b111110110 >
b100 I
1%
#620
0%
#625
00
0+
b11 H
b111111010 *
b111111010 9
b111111010 A
b11111011 6
b11111011 :
b11111011 >
b1111101100000111 !
b1111101100000111 ,
b111 4
b111 <
b110 1
b110 =
b10 I
1%
#630
0%
#635
13
b100 H
b11 I
1%
#640
0%
#645
b1111101000000111 !
b1111101000000111 ,
10
1+
03
b10 H
b11111001 *
b11111001 9
b11111001 A
b111111010 6
b111111010 :
b111111010 >
b100 I
1%
#650
0%
#655
00
0+
b11 H
1.
b111 1
b111 =
b111111100 *
b111111100 9
b111111100 A
b11111101 6
b11111101 :
b11111101 >
b1111110100000011 !
b1111110100000011 ,
b11 4
b11 <
b10 I
1%
#660
0%
#665
13
b100 H
b11 I
1%
#670
0%
#675
b1111110000000011 !
b1111110000000011 ,
10
1+
03
b101 H
b11111011 *
b11111011 9
b11111011 A
b111111100 6
b111111100 :
b111111100 >
b100 I
1%
#680
0%
#685
1"
00
0+
b0 H
b111111101 *
b111111101 9
b111111101 A
b11111110 6
b11111110 :
b11111110 >
b1111111000000001 !
b1111111000000001 ,
b1 4
b1 <
0.
b1000 1
b1000 =
b101 I
1%
#690
b1 J
0%
#695
0"
b0 I
1%
#700
b1 H
1'
b1 #
b1 (
b1 7
0%
#705
12
1-
b10 H
b1 I
1%
#710
0'
0%
#715
02
0-
b11 H
b0 1
b0 =
b11111111 !
b11111111 ,
b11111111 4
b11111111 <
b1 5
b1 ;
b1 ?
b1 *
b1 9
b1 A
b0 6
b0 :
b0 >
b10 I
1%
#720
0%
#725
13
b100 H
b11 I
1%
#730
0%
#735
b111111111 !
b111111111 ,
10
1+
03
b10 H
b10 *
b10 9
b10 A
b1 6
b1 :
b1 >
b100 I
1%
#740
0%
#745
b11111111 !
b11111111 ,
00
0+
b11 H
b1 *
b1 9
b1 A
b0 6
b0 :
b0 >
b1 1
b1 =
b10 I
1%
#750
0%
#755
13
b100 H
b11 I
1%
#760
0%
#765
b111111111 !
b111111111 ,
10
1+
03
b10 H
b10 *
b10 9
b10 A
b1 6
b1 :
b1 >
b100 I
1%
#770
0%
#775
b11111111 !
b11111111 ,
00
0+
b11 H
b10 1
b10 =
b1 *
b1 9
b1 A
b0 6
b0 :
b0 >
b10 I
1%
#780
0%
#785
13
b100 H
b11 I
1%
#790
0%
#795
b111111111 !
b111111111 ,
10
1+
03
b10 H
b10 *
b10 9
b10 A
b1 6
b1 :
b1 >
b100 I
1%
#800
0%
#805
b11111111 !
b11111111 ,
00
0+
b11 H
b1 *
b1 9
b1 A
b0 6
b0 :
b0 >
b11 1
b11 =
b10 I
1%
#810
0%
#815
13
b100 H
b11 I
1%
#820
0%
#825
b111111111 !
b111111111 ,
10
1+
03
b10 H
b10 *
b10 9
b10 A
b1 6
b1 :
b1 >
b100 I
1%
#830
0%
#835
b11111111 !
b11111111 ,
00
0+
b11 H
b100 1
b100 =
b1 *
b1 9
b1 A
b0 6
b0 :
b0 >
b10 I
1%
#840
0%
#845
13
b100 H
b11 I
1%
#850
0%
#855
b111111111 !
b111111111 ,
10
1+
03
b10 H
b10 *
b10 9
b10 A
b1 6
b1 :
b1 >
b100 I
1%
#860
0%
#865
b11111111 !
b11111111 ,
00
0+
b11 H
b1 *
b1 9
b1 A
b0 6
b0 :
b0 >
b101 1
b101 =
b10 I
1%
#870
0%
#875
13
b100 H
b11 I
1%
#880
0%
#885
b111111111 !
b111111111 ,
10
1+
03
b10 H
b10 *
b10 9
b10 A
b1 6
b1 :
b1 >
b100 I
1%
#890
0%
#895
b11111111 !
b11111111 ,
00
0+
b11 H
b110 1
b110 =
b1 *
b1 9
b1 A
b0 6
b0 :
b0 >
b10 I
1%
#900
0%
#905
13
b100 H
b11 I
1%
#910
0%
#915
b111111111 !
b111111111 ,
10
1+
03
b10 H
b10 *
b10 9
b10 A
b1 6
b1 :
b1 >
b100 I
1%
#920
0%
#925
b11111111 !
b11111111 ,
00
0+
b11 H
b1 *
b1 9
b1 A
b0 6
b0 :
b0 >
1.
b111 1
b111 =
b10 I
1%
#930
0%
#935
13
b100 H
b11 I
1%
#940
0%
#945
b111111111 !
b111111111 ,
10
1+
03
b101 H
b10 *
b10 9
b10 A
b1 6
b1 :
b1 >
b100 I
1%
#950
0%
#955
b11111111 !
b11111111 ,
1"
00
0+
b0 H
0.
b1000 1
b1000 =
b1 *
b1 9
b1 A
b0 6
b0 :
b0 >
b101 I
1%
#960
b10 K
b10000000 J
0%
#965
0"
b0 I
1%
#970
b1 H
1'
b10 $
b10 )
b10 8
b10000000 #
b10000000 (
b10000000 7
0%
#975
12
1-
b10 H
b1 I
1%
#980
0'
0%
#985
0/
0@
02
0-
b100 H
b10 !
b10 ,
b10 4
b10 <
b10000000 *
b10000000 9
b10000000 A
b10000000 5
b10000000 ;
b10000000 ?
b0 1
b0 =
b10 I
1%
#990
0%
#995
10
1+
b10 H
b100 I
1%
#1000
0%
#1005
1/
1@
00
0+
b11 H
b1 !
b1 ,
b1 4
b1 <
b1 1
b1 =
b10 I
1%
#1010
0%
#1015
13
b100 H
b11 I
1%
#1020
0%
#1025
b1000000000000001 !
b1000000000000001 ,
10
1+
03
b10 H
b100000000 *
b100000000 9
b100000000 A
b10000000 6
b10000000 :
b10000000 >
b100 I
1%
#1030
0%
#1035
0/
0@
00
0+
b100 H
b10 1
b10 =
b11000000 *
b11000000 9
b11000000 A
b1000000 6
b1000000 :
b1000000 >
b100000000000000 !
b100000000000000 ,
b0 4
b0 <
b10 I
1%
#1040
0%
#1045
10
1+
b10 H
b100 I
1%
#1050
0%
#1055
b10000000000000 !
b10000000000000 ,
00
0+
b100 H
b11 1
b11 =
b10100000 *
b10100000 9
b10100000 A
b100000 6
b100000 :
b100000 >
b10 I
1%
#1060
0%
#1065
10
1+
b10 H
b100 I
1%
#1070
0%
#1075
b1000000000000 !
b1000000000000 ,
00
0+
b100 H
b100 1
b100 =
b10010000 *
b10010000 9
b10010000 A
b10000 6
b10000 :
b10000 >
b10 I
1%
#1080
0%
#1085
10
1+
b10 H
b100 I
1%
#1090
0%
#1095
b100000000000 !
b100000000000 ,
00
0+
b100 H
b101 1
b101 =
b10001000 *
b10001000 9
b10001000 A
b1000 6
b1000 :
b1000 >
b10 I
1%
#1100
0%
#1105
10
1+
b10 H
b100 I
1%
#1110
0%
#1115
b10000000000 !
b10000000000 ,
00
0+
b100 H
b110 1
b110 =
b10000100 *
b10000100 9
b10000100 A
b100 6
b100 :
b100 >
b10 I
1%
#1120
0%
#1125
10
1+
b10 H
b100 I
1%
#1130
0%
#1135
b1000000000 !
b1000000000 ,
00
0+
b100 H
1.
b111 1
b111 =
b10000010 *
b10000010 9
b10000010 A
b10 6
b10 :
b10 >
b10 I
1%
#1140
0%
#1145
10
1+
b101 H
b100 I
1%
#1150
0%
#1155
b100000000 !
b100000000 ,
1"
00
0+
b0 H
0.
b1000 1
b1000 =
b10000001 *
b10000001 9
b10000001 A
b1 6
b1 :
b1 >
b101 I
1%
