vcd/seq_mult_dft.vcd
$date
	Thu May 28 21:29:51 2026
$end
$version
	Icarus Verilog
$end
$timescale
	1s
$end
$scope module tb_seq_multiplier $end
$var wire 1 ! scan_out $end
$var wire 16 " product [15:0] $end
$var wire 1 # done $end
$var reg 8 $ a [7:0] $end
$var reg 8 % b [7:0] $end
$var reg 1 & clk $end
$var reg 1 ' rst $end
$var reg 1 ( scan_enable $end
$var reg 1 ) scan_in $end
$var reg 1 * start $end
$var reg 1 + test_mode $end
$scope module dut $end
$var wire 8 , a [7:0] $end
$var wire 8 - b [7:0] $end
$var wire 1 & clk $end
$var wire 1 ' rst $end
$var wire 1 ( scan_enable $end
$var wire 1 ) scan_in $end
$var wire 1 * start $end
$var wire 1 + test_mode $end
$var wire 9 . sum [8:0] $end
$var wire 3 / state [2:0] $end
$var wire 1 0 shift $end
$var wire 3 1 scan_state_in [2:0] $end
$var wire 1 ! scan_out $end
$var wire 4 2 scan_cnt_in [3:0] $end
$var wire 8 3 scan_Q_in [7:0] $end
$var wire 8 4 scan_M_in [7:0] $end
$var wire 9 5 scan_A_in [8:0] $end
$var wire 16 6 product [15:0] $end
$var wire 1 7 load $end
$var wire 1 8 last $end
$var wire 1 # done $end
$var wire 1 9 do_add $end
$var wire 1 : count_en $end
$var wire 4 ; cnt [3:0] $end
$var wire 1 < clear $end
$var wire 1 = add_en $end
$var wire 8 > Q [7:0] $end
$var wire 8 ? M [7:0] $end
$var wire 9 @ A [8:0] $end
$scope module U1 $end
$var wire 8 A a_in [7:0] $end
$var wire 8 B b_in [7:0] $end
$var wire 1 & clk $end
$var wire 1 ' rst $end
$var wire 1 ( scan_enable $end
$var wire 9 C scan_in_A [8:0] $end
$var wire 8 D scan_in_M [7:0] $end
$var wire 8 E scan_in_Q [7:0] $end
$var wire 9 F sum [8:0] $end
$var wire 1 0 shift $end
$var wire 1 7 load $end
$var wire 1 = add_en $end
$var reg 9 G A [8:0] $end
$var reg 8 H M [7:0] $end
$var reg 8 I Q [7:0] $end
$upscope $end
$scope module U2 $end
$var wire 1 & clk $end
$var wire 1 ' rst $end
$var wire 1 ( scan_enable $end
$var wire 4 J scan_in [3:0] $end
$var wire 1 + test_mode $end
$var wire 1 8 last $end
$var wire 1 K gated_clk $end
$var wire 4 L count_next_func [3:0] $end
$var wire 1 : count_en $end
$var wire 1 < clear $end
$var reg 4 M count [3:0] $end
$scope module U_ICG $end
$var wire 1 & clk $end
$var wire 1 K gated_clk $end
$var wire 1 + test_enable $end
$var wire 1 : enable $end
$var reg 1 N en_latch $end
$upscope $end
$upscope $end
$scope module U3 $end
$var wire 9 O A [8:0] $end
$var wire 8 P M [7:0] $end
$var wire 1 Q Q_lsb $end
$var wire 1 9 do_add $end
$var wire 9 R sum [8:0] $end
$upscope $end
$scope module U4 $end
$var wire 1 & clk $end
$var wire 1 8 last $end
$var wire 1 S q_lsb $end
$var wire 1 ' rst $end
$var wire 1 ( scan_enable $end
$var wire 3 T scan_in [2:0] $end
$var wire 1 * start $end
$var parameter 3 U ADD $end
$var parameter 3 V CHECK $end
$var parameter 3 W DONE $end
$var parameter 3 X IDLE $end
$var parameter 3 Y LOAD $end
$var parameter 3 Z SHIFT $end
$var reg 1 = add_en $end
$var reg 1 < clear $end
$var reg 1 : count_en $end
$var reg 1 # done $end
$var reg 1 7 load $end
$var reg 3 [ next [2:0] $end
$var reg 1 0 shift $end
$var reg 3 \ state [2:0] $end
$upscope $end
$upscope $end
$scope task at_speed_test $end
$var reg 32 ] pattern [31:0] $end
$var integer 32 ^ i [31:0] $end
$upscope $end
$scope task run $end
$var reg 8 _ x [7:0] $end
$var reg 8 ` y [7:0] $end
$upscope $end
$scope task scan_shift_test $end
$var reg 32 a pattern [31:0] $end
$var integer 32 b i [31:0] $end
$upscope $end
$scope task shift_capture_shift_test $end
$var reg 32 c captured [31:0] $end
$var reg 32 d pattern [31:0] $end
$var integer 32 e i [31:0] $end
$upscope $end
$upscope $end
$enddefinitions $end
$comment Show the parameter values. $end
$dumpall
b100 Z
b1 Y
b0 X
b101 W
b10 V
b11 U
$end
#0
$dumpvars
bx e
bx d
bx c
bx b
bx a
bx `
bx _
bx ^
bx ]
b0 \
b0 [
b0 T
0S
b0 R
0Q
b0 P
b0 O
0N
b0 M
b1 L
0K
b0 J
b0 I
b0 H
b0 G
b0 F
b0 E
b0 D
b0 C
bx B
bx A
b0 @
b0 ?
b0 >
0=
0<
b0 ;
0:
09
08
07
b0 6
b0 5
b0 4
b0 3
b0 2
b0 1
00
b0 /
b0 .
bx -
bx ,
0+
0*
0)
0(
1'
0&
bx %
bx $
0#
b0 "
0!
$end
#5
1&
#10
0&
#12
b1011 `
b1101 _
0'
#15
1&
#20
b1 [
1*
b1011 %
b1011 -
b1011 B
b1101 $
b1101 ,
b1101 A
0&
#25
b0 L
1<
17
b10 [
b10 1
b10 T
b1 /
b1 \
1&
#30
0*
0&
#35
b1 L
1S
19
1Q
b10110 3
b10110 E
b11010 4
b11010 D
0<
07
b11 [
b100 1
b100 T
b1011 "
b1011 6
b1011 >
b1011 I
b1101 .
b1101 F
b1101 R
b1101 ?
b1101 H
b1101 P
b10 /
b10 \
1&
#40
0&
#45
1=
b100 [
b110 1
b110 T
b11 /
b11 \
1&
#50
0&
#55
b110100001011 "
b110100001011 6
1:
10
0=
b10 [
b11011 5
b11011 C
b0 1
b0 T
b11010 .
b11010 F
b11010 R
b1101 @
b1101 G
b1101 O
b100 /
b100 \
1&
#60
1N
0&
#65
b10 L
0:
00
b11 [
b100 1
b100 T
b11 2
b11 J
b1010 3
b1010 E
b1100 5
b1100 C
b1 ;
b1 M
b10 /
b10 \
b11010000101 "
b11010000101 6
b10000101 >
b10000101 I
b10011 .
b10011 F
b10011 R
b110 @
b110 G
b110 O
1K
1&
#70
0N
0K
0&
#75
1=
b100 [
b110 1
b110 T
b11 /
b11 \
1&
#80
0&
#85
1:
10
0=
b10 [
b0 1
b0 T
b1001110000101 "
b1001110000101 6
b100111 5
b100111 C
b100 /
b100 \
b100000 .
b100000 F
b100000 R
b10011 @
b10011 G
b10011 O
1&
#90
1N
0&
#95
b11 L
b101 2
b101 J
0S
09
0Q
b10000100 3
b10000100 E
0:
00
b100 [
b10010 5
b10010 C
b100 1
b100 T
b10 ;
b10 M
b100111000010 "
b100111000010 6
b11000010 >
b11000010 I
b10110 .
b10110 F
b10110 R
b1001 @
b1001 G
b1001 O
b10 /
b10 \
1K
1&
#100
0N
0K
0&
#105
1:
10
b10 [
b10011 5
b10011 C
b0 1
b0 T
b100 /
b100 \
1&
#110
1N
0&
#115
b100 L
b111 2
b111 J
1S
19
1Q
b11000010 3
b11000010 E
0:
00
b11 [
b1000 5
b1000 C
b100 1
b100 T
b11 ;
b11 M
b10011100001 "
b10011100001 6
b11100001 >
b11100001 I
b10001 .
b10001 F
b10001 R
b100 @
b100 G
b100 O
b10 /
b10 \
1K
1&
#120
0N
0K
0&
#125
1=
b100 [
b110 1
b110 T
b11 /
b11 \
1&
#130
0&
#135
b1000111100001 "
b1000111100001 6
1:
10
0=
b10 [
b100011 5
b100011 C
b0 1
b0 T
b11110 .
b11110 F
b11110 R
b10001 @
b10001 G
b10001 O
b100 /
b100 \
1&
#140
1N
0&
#145
b101 L
b1001 2
b1001 J
0:
00
b100 [
b100 1
b100 T
0S
09
0Q
b11100000 3
b11100000 E
b10000 5
b10000 C
b100 ;
b100 M
b10 /
b10 \
b100011110000 "
b100011110000 6
b11110000 >
b11110000 I
b10101 .
b10101 F
b10101 R
b1000 @
b1000 G
b1000 O
1K
1&
#150
0N
0K
0&
#155
1:
10
b10 [
b10001 5
b10001 C
b0 1
b0 T
b100 /
b100 \
1&
#160
1N
0&
#165
b110 L
0:
00
b100 [
b100 1
b100 T
b1010 2
b1010 J
b11110000 3
b11110000 E
b1000 5
b1000 C
b101 ;
b101 M
b10 /
b10 \
b10001111000 "
b10001111000 6
b1111000 >
b1111000 I
b10001 .
b10001 F
b10001 R
b100 @
b100 G
b100 O
1K
1&
#170
0N
0K
0&
#175
1:
10
b10 [
b1001 5
b1001 C
b0 1
b0 T
b100 /
b100 \
1&
#180
1N
0&
#185
b111 L
b1100 2
b1100 J
0:
00
b100 [
b100 1
b100 T
b1111000 3
b1111000 E
b100 5
b100 C
b110 ;
b110 M
b10 /
b10 \
b1000111100 "
b1000111100 6
b111100 >
b111100 I
b1111 .
b1111 F
b1111 R
b10 @
b10 G
b10 O
1K
1&
#190
0N
0K
0&
#195
1:
10
b10 [
b101 5
b101 C
b0 1
b0 T
b100 /
b100 \
1&
#200
1N
0&
#205
b1000 L
b1110 2
b1110 J
0:
00
b100 [
b100 1
b100 T
b111100 3
b111100 E
b10 5
b10 C
18
b111 ;
b111 M
b10 /
b10 \
b100011110 "
b100011110 6
b11110 >
b11110 I
b1110 .
b1110 F
b1110 R
b1 @
b1 G
b1 O
1K
1&
#210
0N
0K
0&
#215
1:
10
b101 [
b11 5
b11 C
b0 1
b0 T
b100 /
b100 \
1&
#220
1N
0&
#225
b1001 L
1!
1#
0:
00
b0 [
b10 1
b10 T
1S
19
1Q
b1 2
b1 J
b11110 3
b11110 E
b1 5
b1 C
08
b1000 ;
b1000 M
b101 /
b101 \
b10001111 "
b10001111 6
b10001111 >
b10001111 I
b1101 .
b1101 F
b1101 R
b0 @
b0 G
b0 O
1K
1&
#230
0N
0K
b0 `
b0 _
0&
#235
0#
b0 5
b0 C
b0 1
b0 T
b0 /
b0 \
1&
#240
b1 [
1*
b0 %
b0 -
b0 B
b0 $
b0 ,
b0 A
0&
#245
b0 L
1<
17
b10 [
b10 1
b10 T
b1 /
b1 \
1&
#250
0*
0&
#255
b1001 L
0S
09
0Q
b0 2
b0 J
b0 3
b0 E
b0 4
b0 D
0<
07
b100 [
b100 1
b100 T
b0 "
b0 6
b0 >
b0 I
b0 .
b0 F
b0 R
b0 ?
b0 H
b0 P
b10 /
b10 \
1&
#260
0&
#265
1:
10
b10 [
b1 5
b1 C
b0 1
b0 T
b100 /
b100 \
1&
#270
1N
0&
#275
b1010 L
b10 2
b10 J
0:
00
b100 [
b0 5
b0 C
b100 1
b100 T
b1001 ;
b1001 M
b10 /
b10 \
1K
1&
#280
0N
0K
0&
#285
1:
10
b10 [
b1 5
b1 C
b0 1
b0 T
b100 /
b100 \
1&
#290
1N
0&
#295
b1011 L
b100 2
b100 J
0:
00
b100 [
b0 5
b0 C
b100 1
b100 T
b1010 ;
b1010 M
b10 /
b10 \
1K
1&
#300
0N
0K
0&
#305
1:
10
b10 [
b1 5
b1 C
b0 1
b0 T
b100 /
b100 \
1&
#310
1N
0&
#315
b1100 L
b110 2
b110 J
0:
00
b100 [
b0 5
b0 C
b100 1
b100 T
b1011 ;
b1011 M
b10 /
b10 \
1K
1&
#320
0N
0K
0&
#325
1:
10
b10 [
b1 5
b1 C
b0 1
b0 T
b100 /
b100 \
1&
#330
1N
0&
#335
b1101 L
b1000 2
b1000 J
0:
00
b100 [
b0 5
b0 C
b100 1
b100 T
b1100 ;
b1100 M
b10 /
b10 \
1K
1&
#340
0N
0K
0&
#345
1:
10
b10 [
b1 5
b1 C
b0 1
b0 T
b100 /
b100 \
1&
#350
1N
0&
#355
b1110 L
b1010 2
b1010 J
0:
00
b100 [
b0 5
b0 C
b100 1
b100 T
b1101 ;
b1101 M
b10 /
b10 \
1K
1&
#360
0N
0K
0&
#365
1:
10
b10 [
b1 5
b1 C
b0 1
b0 T
b100 /
b100 \
1&
#370
1N
0&
#375
b1111 L
b1100 2
b1100 J
0:
00
b100 [
b0 5
b0 C
b100 1
b100 T
b1110 ;
b1110 M
b10 /
b10 \
1K
1&
#380
0N
0K
0&
#385
1:
10
b10 [
b1 5
b1 C
b0 1
b0 T
b100 /
b100 \
1&
#390
1N
0&
#395
b0 L
b1110 2
b1110 J
0:
00
b100 [
b0 5
b0 C
b100 1
b100 T
b1111 ;
b1111 M
b10 /
b10 \
1K
1&
#400
0N
0K
0&
#405
1:
10
b10 [
b1 5
b1 C
b0 1
b0 T
b100 /
b100 \
1&
#410
1N
0&
#415
b1 L
0!
b0 2
b0 J
0:
00
b100 [
b0 5
b0 C
b100 1
b100 T
b0 ;
b0 M
b10 /
b10 \
1K
1&
#420
0N
0K
0&
#425
1:
10
b10 [
b1 5
b1 C
b0 1
b0 T
b100 /
b100 \
1&
#430
1N
0&
#435
b10 L
b10 2
b10 J
0:
00
b100 [
b0 5
b0 C
b100 1
b100 T
b1 ;
b1 M
b10 /
b10 \
1K
1&
#440
0N
0K
0&
#445
1:
10
b10 [
b1 5
b1 C
b0 1
b0 T
b100 /
b100 \
1&
#450
1N
0&
#455
b11 L
b100 2
b100 J
0:
00
b100 [
b0 5
b0 C
b100 1
b100 T
b10 ;
b10 M
b10 /
b10 \
1K
1&
#460
0N
0K
0&
#465
1:
10
b10 [
b1 5
b1 C
b0 1
b0 T
b100 /
b100 \
1&
#470
1N
0&
#475
b100 L
b110 2
b110 J
0:
00
b100 [
b0 5
b0 C
b100 1
b100 T
b11 ;
b11 M
b10 /
b10 \
1K
1&
#480
0N
0K
0&
#485
1:
10
b10 [
b1 5
b1 C
b0 1
b0 T
b100 /
b100 \
1&
#490
1N
0&
#495
b101 L
b1000 2
b1000 J
0:
00
b100 [
b0 5
b0 C
b100 1
b100 T
b100 ;
b100 M
b10 /
b10 \
1K
1&
#500
0N
0K
0&
#505
1:
10
b10 [
b1 5
b1 C
b0 1
b0 T
b100 /
b100 \
1&
#510
1N
0&
#515
b110 L
b1010 2
b1010 J
0:
00
b100 [
b0 5
b0 C
b100 1
b100 T
b101 ;
b101 M
b10 /
b10 \
1K
1&
#520
0N
0K
0&
#525
1:
10
b10 [
b1 5
b1 C
b0 1
b0 T
b100 /
b100 \
1&
#530
1N
0&
#535
b111 L
b1100 2
b1100 J
0:
00
b100 [
b0 5
b0 C
b100 1
b100 T
b110 ;
b110 M
b10 /
b10 \
1K
1&
#540
0N
0K
0&
#545
1:
10
b10 [
b1 5
b1 C
b0 1
b0 T
b100 /
b100 \
1&
#550
1N
0&
#555
b1000 L
b1110 2
b1110 J
0:
00
b100 [
b0 5
b0 C
b100 1
b100 T
18
b111 ;
b111 M
b10 /
b10 \
1K
1&
#560
0N
0K
0&
#565
1:
10
b101 [
b1 5
b1 C
b0 1
b0 T
b100 /
b100 \
1&
#570
1N
0&
#575
b1001 L
1!
b0 2
b0 J
1#
0:
00
b0 [
b10 1
b10 T
08
b1000 ;
b1000 M
b101 /
b101 \
1K
1&
#580
0N
0K
b11111111 `
b11111111 _
0&
#585
0#
b0 5
b0 C
b0 1
b0 T
b0 /
b0 \
1&
#590
b1 [
1*
b11111111 %
b11111111 -
b11111111 B
b11111111 $
b11111111 ,
b11111111 A
0&
#595
b0 L
1<
17
b10 [
b10 1
b10 T
b1 /
b1 \
1&
#600
0*
0&
#605
b1001 L
0<
07
b11 [
b100 1
b100 T
1S
19
1Q
b1 2
b1 J
b11111111 3
b11111111 E
b11111110 4
b11111110 D
b10 /
b10 \
b11111111 "
b11111111 6
b11111111 >
b11111111 I
b11111111 .
b11111111 F
b11111111 R
b11111111 ?
b11111111 H
b11111111 P
1&
#610
0&
#615
1=
b100 [
b110 1
b110 T
b11 /
b11 \
1&
#620
0&
#625
1:
10
0=
b10 [
b0 1
b0 T
b1111111111111111 "
b1111111111111111 6
b111111111 5
b111111111 C
b100 /
b100 \
b111111110 .
b111111110 F
b111111110 R
b11111111 @
b11111111 G
b11111111 O
1&
#630
1N
0&
#635
b1010 L
b11 2
b11 J
b111111111111111 "
b111111111111111 6
0:
00
b11 [
b11111110 5
b11111110 C
b100 1
b100 T
b1001 ;
b1001 M
b101111110 .
b101111110 F
b101111110 R
b1111111 @
b1111111 G
b1111111 O
b10 /
b10 \
1K
1&
#640
0N
0K
0&
#645
1=
b100 [
b110 1
b110 T
b11 /
b11 \
1&
#650
0&
#655
b111111011111111 "
b111111011111111 6
b11111111 4
b11111111 D
1:
10
0=
b10 [
b11111101 5
b11111101 C
b0 1
b0 T
b1111101 .
b1111101 F
b1111101 R
b101111110 @
b101111110 G
b101111110 O
b100 /
b100 \
1&
#660
1N
0&
#665
b1011 L
0:
00
b11 [
b100 1
b100 T
b100 2
b100 J
b11111110 4
b11111110 D
b101111110 5
b101111110 C
b1010 ;
b1010 M
b10 /
b10 \
b1011111101111111 "
b1011111101111111 6
b1111111 >
b1111111 I
b110111110 .
b110111110 F
b110111110 R
b10111111 @
b10111111 G
b10111111 O
1K
1&
#670
0N
0K
0&
#675
1=
b100 [
b110 1
b110 T
b11 /
b11 \
1&
#680
0&
#685
1:
10
0=
b10 [
b0 1
b0 T
b1011111001111111 "
b1011111001111111 6
b11111111 4
b11111111 D
b101111101 5
b101111101 C
b100 /
b100 \
b10111101 .
b10111101 F
b10111101 R
b110111110 @
b110111110 G
b110111110 O
1&
#690
1N
0&
#695
b1100 L
b110 2
b110 J
b1111111 3
b1111111 E
b11111110 4
b11111110 D
0:
00
b11 [
b110111110 5
b110111110 C
b100 1
b100 T
b1011 ;
b1011 M
b1101111100111111 "
b1101111100111111 6
b111111 >
b111111 I
b111011110 .
b111011110 F
b111011110 R
b11011111 @
b11011111 G
b11011111 O
b10 /
b10 \
1K
1&
#700
0N
0K
0&
#705
1=
b100 [
b110 1
b110 T
b11 /
b11 \
1&
#710
0&
#715
b1101111000111111 "
b1101111000111111 6
b11111111 4
b11111111 D
1:
10
0=
b10 [
b110111101 5
b110111101 C
b0 1
b0 T
b11011101 .
b11011101 F
b11011101 R
b111011110 @
b111011110 G
b111011110 O
b100 /
b100 \
1&
#720
1N
0&
#725
b1101 L
b1000 2
b1000 J
0:
00
b11 [
b100 1
b100 T
b111111 3
b111111 E
b11111110 4
b11111110 D
b111011110 5
b111011110 C
b1100 ;
b1100 M
b10 /
b10 \
b1110111100011111 "
b1110111100011111 6
b11111 >
b11111 I
b111101110 .
b111101110 F
b111101110 R
b11101111 @
b11101111 G
b11101111 O
1K
1&
#730
0N
0K
0&
#735
1=
b100 [
b110 1
b110 T
b11 /
b11 \
1&
#740
0&
#745
1:
10
0=
b10 [
b0 1
b0 T
b1110111000011111 "
b1110111000011111 6
b11111111 4
b11111111 D
b111011101 5
b111011101 C
b100 /
b100 \
b11101101 .
b11101101 F
b11101101 R
b111101110 @
b111101110 G
b111101110 O
1&
#750
1N
0&
#755
b1110 L
b1010 2
b1010 J
b11111 3
b11111 E
b11111110 4
b11111110 D
0:
00
b11 [
b111101110 5
b111101110 C
b100 1
b100 T
b1101 ;
b1101 M
b1111011100001111 "
b1111011100001111 6
b1111 >
b1111 I
b111110110 .
b111110110 F
b111110110 R
b11110111 @
b11110111 G
b11110111 O
b10 /
b10 \
1K
1&
#760
0N
0K
0&
#765
1=
b100 [
b110 1
b110 T
b11 /
b11 \
1&
#770
0&
#775
b1111011000001111 "
b1111011000001111 6
b11111111 4
b11111111 D
1:
10
0=
b10 [
b111101101 5
b111101101 C
b0 1
b0 T
b11110101 .
b11110101 F
b11110101 R
b111110110 @
b111110110 G
b111110110 O
b100 /
b100 \
1&
#780
1N
0&
#785
b1111 L
b1100 2
b1100 J
0:
00
b11 [
b100 1
b100 T
b1111 3
b1111 E
b11111110 4
b11111110 D
b111110110 5
b111110110 C
b1110 ;
b1110 M
b10 /
b10 \
b1111101100000111 "
b1111101100000111 6
b111 >
b111 I
b111111010 .
b111111010 F
b111111010 R
b11111011 @
b11111011 G
b11111011 O
1K
1&
#790
0N
0K
0&
#795
1=
b100 [
b110 1
b110 T
b11 /
b11 \
1&
#800
0&
#805
1:
10
0=
b10 [
b0 1
b0 T
b1111101000000111 "
b1111101000000111 6
b11111111 4
b11111111 D
b111110101 5
b111110101 C
b100 /
b100 \
b11111001 .
b11111001 F
b11111001 R
b111111010 @
b111111010 G
b111111010 O
1&
#810
1N
0&
#815
b0 L
b1110 2
b1110 J
b111 3
b111 E
b11111110 4
b11111110 D
0:
00
b11 [
b111111010 5
b111111010 C
b100 1
b100 T
b1111 ;
b1111 M
b1111110100000011 "
b1111110100000011 6
b11 >
b11 I
b111111100 .
b111111100 F
b111111100 R
b11111101 @
b11111101 G
b11111101 O
b10 /
b10 \
1K
1&
#820
0N
0K
0&
#825
1=
b100 [
b110 1
b110 T
b11 /
b11 \
1&
#830
0&
#835
b1111110000000011 "
b1111110000000011 6
b11111111 4
b11111111 D
1:
10
0=
b10 [
b111111001 5
b111111001 C
b0 1
b0 T
b11111011 .
b11111011 F
b11111011 R
b111111100 @
b111111100 G
b111111100 O
b100 /
b100 \
1&
#840
1N
0&
#845
b1 L
0!
b0 2
b0 J
0:
00
b11 [
b100 1
b100 T
b11 3
b11 E
b11111110 4
b11111110 D
b111111100 5
b111111100 C
b0 ;
b0 M
b10 /
b10 \
b1111111000000001 "
b1111111000000001 6
b1 >
b1 I
b111111101 .
b111111101 F
b111111101 R
b11111110 @
b11111110 G
b11111110 O
1K
1&
#850
0N
0K
0&
#855
1=
b100 [
b110 1
b110 T
b11 /
b11 \
1&
#860
0&
#865
1:
10
0=
b10 [
b0 1
b0 T
b1111110100000001 "
b1111110100000001 6
b11111111 4
b11111111 D
b111111011 5
b111111011 C
b100 /
b100 \
b11111100 .
b11111100 F
b11111100 R
b111111101 @
b111111101 G
b111111101 O
1&
#870
1N
0&
#875
b10 L
0S
09
0Q
b11 2
b11 J
b1 3
b1 E
b11111110 4
b11111110 D
0:
00
b100 [
b111111100 5
b111111100 C
b100 1
b100 T
b1 ;
b1 M
b1111111010000000 "
b1111111010000000 6
b10000000 >
b10000000 I
b111111101 .
b111111101 F
b111111101 R
b11111110 @
b11111110 G
b11111110 O
b10 /
b10 \
1K
1&
#880
0N
0K
0&
#885
1:
10
b10 [
b111111101 5
b111111101 C
b0 1
b0 T
b100 /
b100 \
1&
#890
1N
0&
#895
b11 L
b100 2
b100 J
b10000001 3
b10000001 E
0:
00
b100 [
b11111110 5
b11111110 C
b100 1
b100 T
b10 ;
b10 M
b111111101000000 "
b111111101000000 6
b1000000 >
b1000000 I
b101111110 .
b101111110 F
b101111110 R
b1111111 @
b1111111 G
b1111111 O
b10 /
b10 \
1K
1&
#900
0N
0K
0&
#905
1:
10
b10 [
b11111111 5
b11111111 C
b0 1
b0 T
b100 /
b100 \
1&
#910
1N
0&
#915
b100 L
b111 2
b111 J
b1000001 3
b1000001 E
0:
00
b100 [
b1111110 5
b1111110 C
b100 1
b100 T
b11 ;
b11 M
b11111110100000 "
b11111110100000 6
b10100000 >
b10100000 I
b100111110 .
b100111110 F
b100111110 R
b111111 @
b111111 G
b111111 O
b10 /
b10 \
1K
1&
#920
0N
0K
0&
#925
1:
10
b10 [
b1111111 5
b1111111 C
b0 1
b0 T
b100 /
b100 \
1&
#930
1N
0&
#935
b101 L
b1001 2
b1001 J
b10100001 3
b10100001 E
0:
00
b100 [
b111110 5
b111110 C
b100 1
b100 T
b100 ;
b100 M
b1111111010000 "
b1111111010000 6
b11010000 >
b11010000 I
b100011110 .
b100011110 F
b100011110 R
b11111 @
b11111 G
b11111 O
b10 /
b10 \
1K
1&
#940
0N
0K
0&
#945
1:
10
b10 [
b111111 5
b111111 C
b0 1
b0 T
b100 /
b100 \
1&
#950
1N
0&
#955
b110 L
b1011 2
b1011 J
b11010001 3
b11010001 E
0:
00
b100 [
b11110 5
b11110 C
b100 1
b100 T
b101 ;
b101 M
b111111101000 "
b111111101000 6
b11101000 >
b11101000 I
b100001110 .
b100001110 F
b100001110 R
b1111 @
b1111 G
b1111 O
b10 /
b10 \
1K
1&
#960
0N
0K
0&
#965
1:
10
b10 [
b11111 5
b11111 C
b0 1
b0 T
b100 /
b100 \
1&
#970
1N
0&
#975
b111 L
b1101 2
b1101 J
b11101001 3
b11101001 E
0:
00
b100 [
b1110 5
b1110 C
b100 1
b100 T
b110 ;
b110 M
b11111110100 "
b11111110100 6
b11110100 >
b11110100 I
b100000110 .
b100000110 F
b100000110 R
b111 @
b111 G
b111 O
b10 /
b10 \
1K
1&
#980
0N
0K
0&
#985
1:
10
b10 [
b1111 5
b1111 C
b0 1
b0 T
b100 /
b100 \
1&
#990
1N
0&
#995
b1000 L
b1111 2
b1111 J
b11110101 3
b11110101 E
0:
00
b100 [
b110 5
b110 C
b100 1
b100 T
18
b111 ;
b111 M
b1111111010 "
b1111111010 6
b11111010 >
b11111010 I
b100000010 .
b100000010 F
b100000010 R
b11 @
b11 G
b11 O
b10 /
b10 \
1K
1&
#1000
0N
0K
0&
#1005
1:
10
b101 [
b111 5
b111 C
b0 1
b0 T
b100 /
b100 \
1&
#1010
1N
0&
#1015
b1001 L
1!
b1 2
b1 J
1S
19
1Q
b11111011 3
b11111011 E
b11 5
b11 C
1#
0:
00
b0 [
b10 1
b10 T
08
b1000 ;
b1000 M
b111111101 "
b111111101 6
b11111101 >
b11111101 I
b100000000 .
b100000000 F
b100000000 R
b1 @
b1 G
b1 O
b101 /
b101 \
1K
1&
#1020
0N
0K
b1 _
0&
#1025
0#
b10 5
b10 C
b0 1
b0 T
b0 /
b0 \
1&
#1030
b1 [
1*
b1 $
b1 ,
b1 A
0&
#1035
b0 L
1<
17
b10 [
b10 1
b10 T
b1 /
b1 \
1&
#1040
0*
0&
#1045
b1001 L
0<
07
b11 [
b100 1
b100 T
b11111110 3
b11111110 E
b10 4
b10 D
b0 5
b0 C
b10 /
b10 \
b11111111 "
b11111111 6
b11111111 >
b11111111 I
b1 ?
b1 H
b1 P
b1 .
b1 F
b1 R
b0 @
b0 G
b0 O
1&
#1050
0&
#1055
1=
b100 [
b110 1
b110 T
b11 /
b11 \
1&
#1060
0&
#1065
1:
10
0=
b10 [
b0 1
b0 T
b111111111 "
b111111111 6
b11 5
b11 C
b100 /
b100 \
b10 .
b10 F
b10 R
b1 @
b1 G
b1 O
1&
#1070
1N
0&
#1075
b1010 L
b11 2
b11 J
b11111111 "
b11111111 6
0:
00
b11 [
b0 5
b0 C
b100 1
b100 T
b1001 ;
b1001 M
b1 .
b1 F
b1 R
b0 @
b0 G
b0 O
b10 /
b10 \
1K
1&
#1080
0N
0K
0&
#1085
1=
b100 [
b110 1
b110 T
b11 /
b11 \
1&
#1090
0&
#1095
b111111111 "
b111111111 6
1:
10
0=
b10 [
b11 5
b11 C
b0 1
b0 T
b10 .
b10 F
b10 R
b1 @
b1 G
b1 O
b100 /
b100 \
1&
#1100
1N
0&
#1105
b1011 L
b101 2
b101 J
0:
00
b11 [
b100 1
b100 T
b11111111 "
b11111111 6
b0 5
b0 C
b1010 ;
b1010 M
b10 /
b10 \
b1 .
b1 F
b1 R
b0 @
b0 G
b0 O
1K
1&
#1110
0N
0K
0&
#1115
1=
b100 [
b110 1
b110 T
b11 /
b11 \
1&
#1120
0&
#1125
1:
10
0=
b10 [
b0 1
b0 T
b111111111 "
b111111111 6
b11 5
b11 C
b100 /
b100 \
b10 .
b10 F
b10 R
b1 @
b1 G
b1 O
1&
#1130
1N
0&
#1135
b1100 L
b111 2
b111 J
b11111111 "
b11111111 6
0:
00
b11 [
b0 5
b0 C
b100 1
b100 T
b1011 ;
b1011 M
b1 .
b1 F
b1 R
b0 @
b0 G
b0 O
b10 /
b10 \
1K
1&
#1140
0N
0K
0&
#1145
1=
b100 [
b110 1
b110 T
b11 /
b11 \
1&
#1150
0&
#1155
b111111111 "
b111111111 6
1:
10
0=
b10 [
b11 5
b11 C
b0 1
b0 T
b10 .
b10 F
b10 R
b1 @
b1 G
b1 O
b100 /
b100 \
1&
#1160
1N
0&
#1165
b1101 L
b1001 2
b1001 J
0:
00
b11 [
b100 1
b100 T
b11111111 "
b11111111 6
b0 5
b0 C
b1100 ;
b1100 M
b10 /
b10 \
b1 .
b1 F
b1 R
b0 @
b0 G
b0 O
1K
1&
#1170
0N
0K
0&
#1175
1=
b100 [
b110 1
b110 T
b11 /
b11 \
1&
#1180
0&
#1185
1:
10
0=
b10 [
b0 1
b0 T
b111111111 "
b111111111 6
b11 5
b11 C
b100 /
b100 \
b10 .
b10 F
b10 R
b1 @
b1 G
b1 O
1&
#1190
1N
0&
#1195
b1110 L
b1011 2
b1011 J
b11111111 "
b11111111 6
0:
00
b11 [
b0 5
b0 C
b100 1
b100 T
b1101 ;
b1101 M
b1 .
b1 F
b1 R
b0 @
b0 G
b0 O
b10 /
b10 \
1K
1&
#1200
0N
0K
0&
#1205
1=
b100 [
b110 1
b110 T
b11 /
b11 \
1&
#1210
0&
#1215
b111111111 "
b111111111 6
1:
10
0=
b10 [
b11 5
b11 C
b0 1
b0 T
b10 .
b10 F
b10 R
b1 @
b1 G
b1 O
b100 /
b100 \
1&
#1220
1N
0&
#1225
b1111 L
b1101 2
b1101 J
0:
00
b11 [
b100 1
b100 T
b11111111 "
b11111111 6
b0 5
b0 C
b1110 ;
b1110 M
b10 /
b10 \
b1 .
b1 F
b1 R
b0 @
b0 G
b0 O
1K
1&
#1230
0N
0K
0&
#1235
1=
b100 [
b110 1
b110 T
b11 /
b11 \
1&
#1240
0&
#1245
1:
10
0=
b10 [
b0 1
b0 T
b111111111 "
b111111111 6
b11 5
b11 C
b100 /
b100 \
b10 .
b10 F
b10 R
b1 @
b1 G
b1 O
1&
#1250
1N
0&
#1255
b0 L
b1111 2
b1111 J
b11111111 "
b11111111 6
0:
00
b11 [
b0 5
b0 C
b100 1
b100 T
b1111 ;
b1111 M
b1 .
b1 F
b1 R
b0 @
b0 G
b0 O
b10 /
b10 \
1K
1&
#1260
0N
0K
0&
#1265
1=
b100 [
b110 1
b110 T
b11 /
b11 \
1&
#1270
0&
#1275
b111111111 "
b111111111 6
1:
10
0=
b10 [
b11 5
b11 C
b0 1
b0 T
b10 .
b10 F
b10 R
b1 @
b1 G
b1 O
b100 /
b100 \
1&
